{
  "count": 314,
  "next": "https://api.bothub.it/v2/repository/examples/?limit=20&offset=20&repository_uuid=d001b1db-e7c2-405c-80d2-6bb4867af40f",
  "previous": null,
  "results": [
    {
      "id": 1015599,
      "repository_version": 1752,
      "text": "meu nome é vana",
      "intent": "bias",
      "language": "pt_br",
      "created_at": "2022-06-14T14:33:03.618502Z",
      "entities": [],
      "translations": []
    },
    {
      "id": 1015598,
      "repository_version": 1752,
      "text": "por favor para",
      "intent": "bias",
      "language": "pt_br",
      "created_at": "2022-06-14T14:15:41.953508Z",
      "entities": [],
      "translations": []
    },
    {
      "id": 1015245,
      "repository_version": 1752,
      "text": "deixa quieto",
      "intent": "bias",
      "language": "pt_br",
      "created_at": "2022-06-07T18:41:31.833059Z",
      "entities": [],
      "translations": []
    },
    {
      "id": 1014543,
      "repository_version": 1752,
      "text": "porra nunca tem ngm aqui",
      "intent": "xingamentos",
      "language": "pt_br",
      "created_at": "2022-05-31T13:46:51.066299Z",
      "entities": [],
      "translations": []
    },
    {
      "id": 1014542,
      "repository_version": 1752,
      "text": "nunca tem ninguém nessa merda",
      "intent": "xingamentos",
      "language": "pt_br",
      "created_at": "2022-05-31T13:46:41.825223Z",
      "entities": [],
      "translations": []
    },
    {
      "id": 1014541,
      "repository_version": 1752,
      "text": "mocreia",
      "intent": "xingamentos",
      "language": "pt_br",
      "created_at": "2022-05-31T13:46:17.500910Z",
      "entities": [],
      "translations": []
    },
    {
      "id": 1014540,
      "repository_version": 1752,
      "text": "seu lixo",
      "intent": "xingamentos",
      "language": "pt_br",
      "created_at": "2022-05-31T13:46:03.213763Z",
      "entities": [],
      "translations": []
    },
    {
      "id": 1014539,
      "repository_version": 1752,
      "text": "lixo",
      "intent": "xingamentos",
      "language": "pt_br",
      "created_at": "2022-05-31T13:45:57.980263Z",
      "entities": [],
      "translations": []
    },
    {
      "id": 1014538,
      "repository_version": 1752,
      "text": "Pra que serve voces porra",
      "intent": "xingamentos",
      "language": "pt_br",
      "created_at": "2022-05-31T13:45:40.334530Z",
      "entities": [],
      "translations": []
    },
    {
      "id": 1014537,
      "repository_version": 1752,
      "text": "mulher",
      "intent": "bias",
      "language": "pt_br",
      "created_at": "2022-05-31T13:45:08.564584Z",
      "entities": [],
      "translations": []
    },
    {
      "id": 1011622,
      "repository_version": 1752,
      "text": "moça você ta ai?",
      "intent": "bias",
      "language": "pt_br",
      "created_at": "2022-05-23T13:05:07.134236Z",
      "entities": [],
      "translations": []
    },
    {
      "id": 1011621,
      "repository_version": 1752,
      "text": "moço ta ai?",
      "intent": "bias",
      "language": "pt_br",
      "created_at": "2022-05-23T13:05:00.956375Z",
      "entities": [],
      "translations": []
    },
    {
      "id": 1011620,
      "repository_version": 1752,
      "text": "Windows",
      "intent": "bias",
      "language": "pt_br",
      "created_at": "2022-05-23T13:04:45.003628Z",
      "entities": [],
      "translations": []
    },
    {
      "id": 1011619,
      "repository_version": 1752,
      "text": "gosto do linux",
      "intent": "bias",
      "language": "pt_br",
      "created_at": "2022-05-23T13:04:42.092509Z",
      "entities": [],
      "translations": []
    },
    {
      "id": 1011618,
      "repository_version": 1752,
      "text": "meu sistema é Windows",
      "intent": "bias",
      "language": "pt_br",
      "created_at": "2022-05-23T13:04:33.745091Z",
      "entities": [],
      "translations": []
    },
    {
      "id": 1011617,
      "repository_version": 1752,
      "text": "to cansado de ficar no vacuo",
      "intent": "bias",
      "language": "pt_br",
      "created_at": "2022-05-23T13:04:15.447032Z",
      "entities": [],
      "translations": []
    },
    {
      "id": 1011616,
      "repository_version": 1752,
      "text": "ele sempre fica sem me responder",
      "intent": "bias",
      "language": "pt_br",
      "created_at": "2022-05-23T13:04:06.172814Z",
      "entities": [],
      "translations": []
    },
    {
      "id": 1011615,
      "repository_version": 1752,
      "text": "vai me deixar no vacuo?",
      "intent": "bias",
      "language": "pt_br",
      "created_at": "2022-05-23T13:03:53.512828Z",
      "entities": [],
      "translations": []
    },
    {
      "id": 1011393,
      "repository_version": 1752,
      "text": "sik",
      "intent": "bias",
      "language": "pt_br",
      "created_at": "2022-05-18T19:29:38.541849Z",
      "entities": [],
      "translations": []
    },
    {
      "id": 1011348,
      "repository_version": 1752,
      "text": "pq",
      "intent": "bias",
      "language": "pt_br",
      "created_at": "2022-05-18T11:08:49.391658Z",
      "entities": [],
      "translations": []
    }
  ]
}