{
  "count": 335,
  "next": "https://api.bothub.it/v2/repository/examples/?limit=20&offset=20&repository_uuid=b32dfb1b-a886-471f-9a00-83b1e5d7e23c",
  "previous": null,
  "results": [
    {
      "id": 1171281,
      "repository_version": 969,
      "text": "i feel amazing",
      "intent": "bem",
      "language": "en",
      "created_at": "2022-12-27T14:01:04.832229Z",
      "entities": [],
      "translations": []
    },
    {
      "id": 1171280,
      "repository_version": 969,
      "text": "meh",
      "intent": "mal",
      "language": "en",
      "created_at": "2022-12-27T14:00:51.285488Z",
      "entities": [],
      "translations": []
    },
    {
      "id": 1171279,
      "repository_version": 969,
      "text": "i've never been happier",
      "intent": "bem",
      "language": "en",
      "created_at": "2022-12-27T14:00:29.829310Z",
      "entities": [],
      "translations": []
    },
    {
      "id": 1171278,
      "repository_version": 969,
      "text": "not good",
      "intent": "mal",
      "language": "en",
      "created_at": "2022-12-27T14:00:03.904767Z",
      "entities": [],
      "translations": []
    },
    {
      "id": 1171277,
      "repository_version": 969,
      "text": "not feeling well",
      "intent": "mal",
      "language": "en",
      "created_at": "2022-12-27T13:59:31.681493Z",
      "entities": [],
      "translations": []
    },
    {
      "id": 1171276,
      "repository_version": 969,
      "text": "i've been better",
      "intent": "mal",
      "language": "en",
      "created_at": "2022-12-27T13:59:17.228238Z",
      "entities": [],
      "translations": []
    },
    {
      "id": 1171275,
      "repository_version": 969,
      "text": "not very good",
      "intent": "mal",
      "language": "en",
      "created_at": "2022-12-27T13:59:02.534296Z",
      "entities": [],
      "translations": []
    },
    {
      "id": 1171274,
      "repository_version": 969,
      "text": "i'm not okay",
      "intent": "mal",
      "language": "en",
      "created_at": "2022-12-27T13:58:50.924289Z",
      "entities": [],
      "translations": []
    },
    {
      "id": 960402,
      "repository_version": 969,
      "text": "eu nao paro de pensar que a solução para meus problemas é eu me matar",
      "intent": "mal",
      "language": "pt_br",
      "created_at": "2022-03-11T17:38:31.307410Z",
      "entities": [],
      "translations": [
        4130091,
        4125639,
        3937777,
        3937450
      ]
    },
    {
      "id": 960399,
      "repository_version": 969,
      "text": "vc pode me mandar os lugares presenciais de atendimento",
      "intent": "bias",
      "language": "pt_br",
      "created_at": "2022-03-11T17:23:27.902833Z",
      "entities": [],
      "translations": [
        4130090,
        4125638,
        3937776,
        3937449
      ]
    },
    {
      "id": 960398,
      "repository_version": 969,
      "text": "preciso saber os lugares que tem atendimento presencial",
      "intent": "bias",
      "language": "pt_br",
      "created_at": "2022-03-11T17:23:04.673616Z",
      "entities": [],
      "translations": [
        4130089,
        4125637,
        3937775,
        3937448
      ]
    },
    {
      "id": 960394,
      "repository_version": 969,
      "text": "fazendo favor me avise quando tiver um profissional online",
      "intent": "bias",
      "language": "pt_br",
      "created_at": "2022-03-11T15:01:22.914183Z",
      "entities": [],
      "translations": [
        4130088,
        4125636,
        3937774,
        3937447
      ]
    },
    {
      "id": 960393,
      "repository_version": 969,
      "text": "Por favor me avise quando tiver um profissional online",
      "intent": "bias",
      "language": "pt_br",
      "created_at": "2022-03-11T15:01:22.853141Z",
      "entities": [],
      "translations": [
        4130087,
        4125635,
        3937773,
        3937446
      ]
    },
    {
      "id": 960392,
      "repository_version": 969,
      "text": "fazendo favor me avise quando tiver psiquiatra online",
      "intent": "bias",
      "language": "pt_br",
      "created_at": "2022-03-11T15:01:22.797843Z",
      "entities": [],
      "translations": [
        4130086,
        4125634,
        3937772,
        3937445
      ]
    },
    {
      "id": 960391,
      "repository_version": 969,
      "text": "Por favor me avise quando tiver psiquiatra online",
      "intent": "bias",
      "language": "pt_br",
      "created_at": "2022-03-11T15:01:22.721102Z",
      "entities": [],
      "translations": [
        4130085,
        4125633,
        3937771,
        3937444
      ]
    },
    {
      "id": 960390,
      "repository_version": 969,
      "text": "fazendo favor me avise quando tiver psicologa online",
      "intent": "bias",
      "language": "pt_br",
      "created_at": "2022-03-11T15:01:22.639238Z",
      "entities": [],
      "translations": [
        4130084,
        4125632,
        3937770,
        3937443
      ]
    },
    {
      "id": 960389,
      "repository_version": 969,
      "text": "Por favor me avise quando tiver psicologa online",
      "intent": "bias",
      "language": "pt_br",
      "created_at": "2022-03-11T15:01:22.581341Z",
      "entities": [],
      "translations": [
        4130083,
        4125631,
        3937769,
        3937442
      ]
    },
    {
      "id": 960388,
      "repository_version": 969,
      "text": "fazendo favor me avise quando tiver psicologo online",
      "intent": "bias",
      "language": "pt_br",
      "created_at": "2022-03-11T15:01:22.514966Z",
      "entities": [],
      "translations": [
        4130082,
        4125630,
        3937768,
        3937441
      ]
    },
    {
      "id": 960387,
      "repository_version": 969,
      "text": "Por favor me avise quando tiver psicologo online",
      "intent": "bias",
      "language": "pt_br",
      "created_at": "2022-03-11T15:01:22.453334Z",
      "entities": [],
      "translations": [
        4130081,
        4125629,
        3937767,
        3937440
      ]
    },
    {
      "id": 960386,
      "repository_version": 969,
      "text": "fazendo favor me avise quando tiver atendente online",
      "intent": "bias",
      "language": "pt_br",
      "created_at": "2022-03-11T15:01:22.358531Z",
      "entities": [],
      "translations": [
        4130080,
        4125628,
        3937766,
        3937439
      ]
    }
  ]
}